[
  {
    "__type__": "cc.Prefab",
    "_name": "",
    "_objFlags": 0,
    "_native": "",
    "data": {
      "__id__": 1
    },
    "optimizationPolicy": 0,
    "asyncLoadAssets": false,
    "readonly": false
  },
  {
    "__type__": "cc.Node",
    "_name": "x50_1",
    "_objFlags": 0,
    "_parent": null,
    "_children": [
      {
        "__id__": 2
      },
      {
        "__id__": 5
      },
      {
        "__id__": 8
      },
      {
        "__id__": 10
      },
      {
        "__id__": 12
      },
      {
        "__id__": 16
      }
    ],
    "_active": true,
    "_level": 1,
    "_components": [
      {
        "__id__": 20
      },
      {
        "__id__": 22
      },
      {
        "__id__": 21
      }
    ],
    "_prefab": {
      "__id__": 23
    },
    "_opacity": 255,
    "_color": {
      "__type__": "cc.Color",
      "r": 255,
      "g": 255,
      "b": 255,
      "a": 255
    },
    "_contentSize": {
      "__type__": "cc.Size",
      "width": 0,
      "height": 0
    },
    "_anchorPoint": {
      "__type__": "cc.Vec2",
      "x": 0.5,
      "y": 0.5
    },
    "_eulerAngles": {
      "__type__": "cc.Vec3",
      "x": 0,
      "y": 0,
      "z": 0
    },
    "_skewX": 0,
    "_skewY": 0,
    "_is3DNode": false,
    "groupIndex": 6,
    "_id": "",
    "_trs": {
      "__type__": "TypedArray",
      "ctor": "Float64Array",
      "array": [
        793.253,
        320.757,
        0,
        0,
        0,
        0,
        1,
        1,
        1,
        1
      ]
    }
  },
  {
    "__type__": "cc.Node",
    "_name": "shadow",
    "_objFlags": 0,
    "_parent": {
      "__id__": 1
    },
    "_children": [],
    "_active": true,
    "_level": 4,
    "_components": [
      {
        "__id__": 3
      }
    ],
    "_prefab": {
      "__id__": 4
    },
    "_opacity": 255,
    "_color": {
      "__type__": "cc.Color",
      "r": 255,
      "g": 255,
      "b": 255,
      "a": 255
    },
    "_contentSize": {
      "__type__": "cc.Size",
      "width": 0,
      "height": 0
    },
    "_anchorPoint": {
      "__type__": "cc.Vec2",
      "x": 0.5,
      "y": 0.5
    },
    "_eulerAngles": {
      "__type__": "cc.Vec3",
      "x": 0,
      "y": 0,
      "z": 0
    },
    "_skewX": 0,
    "_skewY": 0,
    "_is3DNode": false,
    "groupIndex": 6,
    "_id": "",
    "_trs": {
      "__type__": "TypedArray",
      "ctor": "Float64Array",
      "array": [
        -8,
        0,
        0,
        0,
        0,
        0,
        1,
        1,
        1,
        1
      ]
    }
  },
  {
    "__type__": "dragonBones.ArmatureDisplay",
    "_name": "",
    "_objFlags": 0,
    "node": {
      "__id__": 2
    },
    "_enabled": true,
    "_materials": [
      {
        "__uuid__": "eca5d2f2-8ef6-41c2-bbe6-f9c79d09c432"
      }
    ],
    "_armatureName": "ankangyu_shadow",
    "_animationName": "ankangyu_shadow",
    "_preCacheMode": 0,
    "_cacheMode": 0,
    "playTimes": -1,
    "premultipliedAlpha": false,
    "_armatureKey": "13439c03-03dc-42fd-af34-1897f9ce796d#c638991b-1e66-4308-bc11-37f3ee290a02",
    "_accTime": 0,
    "_playCount": 0,
    "_frameCache": null,
    "_curFrame": null,
    "_playing": false,
    "_armatureCache": null,
    "_N$dragonAsset": {
      "__uuid__": "13439c03-03dc-42fd-af34-1897f9ce796d"
    },
    "_N$dragonAtlasAsset": {
      "__uuid__": "c638991b-1e66-4308-bc11-37f3ee290a02"
    },
    "_N$_defaultArmatureIndex": 0,
    "_N$_animationIndex": 1,
    "_N$_defaultCacheMode": 0,
    "_N$timeScale": 0.5,
    "_N$debugBones": false,
    "_N$enableBatch": false,
    "_id": ""
  },
  {
    "__type__": "cc.PrefabInfo",
    "root": {
      "__id__": 1
    },
    "asset": {
      "__uuid__": "454a8c99-59af-4611-8e29-a59f3bcd4545"
    },
    "fileId": "ce9wsOoMFF1L7T2VyYbEwx",
    "sync": false
  },
  {
    "__type__": "cc.Node",
    "_name": "fish",
    "_objFlags": 0,
    "_parent": {
      "__id__": 1
    },
    "_children": [],
    "_active": true,
    "_level": 4,
    "_components": [
      {
        "__id__": 6
      }
    ],
    "_prefab": {
      "__id__": 7
    },
    "_opacity": 255,
    "_color": {
      "__type__": "cc.Color",
      "r": 255,
      "g": 255,
      "b": 255,
      "a": 255
    },
    "_contentSize": {
      "__type__": "cc.Size",
      "width": 0,
      "height": 0
    },
    "_anchorPoint": {
      "__type__": "cc.Vec2",
      "x": 0.5,
      "y": 0.5
    },
    "_eulerAngles": {
      "__type__": "cc.Vec3",
      "x": 0,
      "y": 0,
      "z": 0
    },
    "_skewX": 0,
    "_skewY": 0,
    "_is3DNode": false,
    "groupIndex": 0,
    "_id": "",
    "_trs": {
      "__type__": "TypedArray",
      "ctor": "Float64Array",
      "array": [
        0,
        0,
        0,
        0,
        0,
        0,
        1,
        1,
        1,
        1
      ]
    }
  },
  {
    "__type__": "dragonBones.ArmatureDisplay",
    "_name": "",
    "_objFlags": 0,
    "node": {
      "__id__": 5
    },
    "_enabled": true,
    "_materials": [
      {
        "__uuid__": "eca5d2f2-8ef6-41c2-bbe6-f9c79d09c432"
      }
    ],
    "_armatureName": "Sprite",
    "_animationName": "Sprite",
    "_preCacheMode": 0,
    "_cacheMode": 0,
    "playTimes": -1,
    "premultipliedAlpha": false,
    "_armatureKey": "0e9e6d26-58a5-43f6-9f0f-21990c95ae5d#0707747a-9680-4477-bc94-b8c798d769ea",
    "_accTime": 0,
    "_playCount": 0,
    "_frameCache": null,
    "_curFrame": null,
    "_playing": false,
    "_armatureCache": null,
    "_N$dragonAsset": {
      "__uuid__": "0e9e6d26-58a5-43f6-9f0f-21990c95ae5d"
    },
    "_N$dragonAtlasAsset": {
      "__uuid__": "0707747a-9680-4477-bc94-b8c798d769ea"
    },
    "_N$_defaultArmatureIndex": 0,
    "_N$_animationIndex": 1,
    "_N$_defaultCacheMode": 0,
    "_N$timeScale": 0.5,
    "_N$debugBones": false,
    "_N$enableBatch": false,
    "_id": ""
  },
  {
    "__type__": "cc.PrefabInfo",
    "root": {
      "__id__": 1
    },
    "asset": {
      "__uuid__": "454a8c99-59af-4611-8e29-a59f3bcd4545"
    },
    "fileId": "c4GMFpQmZK0KMf5dr1pxEj",
    "sync": false
  },
  {
    "__type__": "cc.Node",
    "_name": "head",
    "_objFlags": 0,
    "_parent": {
      "__id__": 1
    },
    "_children": [],
    "_active": true,
    "_level": 2,
    "_components": [],
    "_prefab": {
      "__id__": 9
    },
    "_opacity": 255,
    "_color": {
      "__type__": "cc.Color",
      "r": 255,
      "g": 255,
      "b": 255,
      "a": 255
    },
    "_contentSize": {
      "__type__": "cc.Size",
      "width": 0,
      "height": 0
    },
    "_anchorPoint": {
      "__type__": "cc.Vec2",
      "x": 0.5,
      "y": 0.5
    },
    "_eulerAngles": {
      "__type__": "cc.Vec3",
      "x": 0,
      "y": 0,
      "z": 0
    },
    "_skewX": 0,
    "_skewY": 0,
    "_is3DNode": false,
    "groupIndex": 0,
    "_id": "",
    "_trs": {
      "__type__": "TypedArray",
      "ctor": "Float64Array",
      "array": [
        -19.22,
        -17.038,
        0,
        0,
        0,
        0,
        1,
        1,
        1,
        1
      ]
    }
  },
  {
    "__type__": "cc.PrefabInfo",
    "root": {
      "__id__": 1
    },
    "asset": {
      "__uuid__": "454a8c99-59af-4611-8e29-a59f3bcd4545"
    },
    "fileId": "95lPkJ7V5IZ7hqNIYrPAHt",
    "sync": false
  },
  {
    "__type__": "cc.Node",
    "_name": "end",
    "_objFlags": 0,
    "_parent": {
      "__id__": 1
    },
    "_children": [],
    "_active": true,
    "_level": 2,
    "_components": [],
    "_prefab": {
      "__id__": 11
    },
    "_opacity": 255,
    "_color": {
      "__type__": "cc.Color",
      "r": 255,
      "g": 255,
      "b": 255,
      "a": 255
    },
    "_contentSize": {
      "__type__": "cc.Size",
      "width": 0,
      "height": 0
    },
    "_anchorPoint": {
      "__type__": "cc.Vec2",
      "x": 0.5,
      "y": 0.5
    },
    "_eulerAngles": {
      "__type__": "cc.Vec3",
      "x": 0,
      "y": 0,
      "z": 0
    },
    "_skewX": 0,
    "_skewY": 0,
    "_is3DNode": false,
    "groupIndex": 0,
    "_id": "",
    "_trs": {
      "__type__": "TypedArray",
      "ctor": "Float64Array",
      "array": [
        16.282,
        -15.424,
        0,
        0,
        0,
        0,
        1,
        1,
        1,
        1
      ]
    }
  },
  {
    "__type__": "cc.PrefabInfo",
    "root": {
      "__id__": 1
    },
    "asset": {
      "__uuid__": "454a8c99-59af-4611-8e29-a59f3bcd4545"
    },
    "fileId": "dfXa7BfjpI7oMfGAvoD+pH",
    "sync": false
  },
  {
    "__type__": "cc.Node",
    "_name": "fish_suoding_other",
    "_objFlags": 0,
    "_parent": {
      "__id__": 1
    },
    "_children": [],
    "_active": false,
    "_level": 2,
    "_components": [
      {
        "__id__": 13
      },
      {
        "__id__": 14
      }
    ],
    "_prefab": {
      "__id__": 15
    },
    "_opacity": 97,
    "_color": {
      "__type__": "cc.Color",
      "r": 255,
      "g": 255,
      "b": 255,
      "a": 255
    },
    "_contentSize": {
      "__type__": "cc.Size",
      "width": 169,
      "height": 169
    },
    "_anchorPoint": {
      "__type__": "cc.Vec2",
      "x": 0.5,
      "y": 0.5
    },
    "_eulerAngles": {
      "__type__": "cc.Vec3",
      "x": 0,
      "y": 0,
      "z": 0
    },
    "_skewX": 0,
    "_skewY": 0,
    "_is3DNode": false,
    "groupIndex": 0,
    "_id": "",
    "_trs": {
      "__type__": "TypedArray",
      "ctor": "Float64Array",
      "array": [
        17.123,
        -12.329,
        0,
        0,
        0,
        0,
        1,
        0.85,
        0.85,
        1
      ]
    }
  },
  {
    "__type__": "cc.Sprite",
    "_name": "",
    "_objFlags": 0,
    "node": {
      "__id__": 12
    },
    "_enabled": true,
    "_materials": [
      {
        "__uuid__": "eca5d2f2-8ef6-41c2-bbe6-f9c79d09c432"
      }
    ],
    "_srcBlendFactor": 770,
    "_dstBlendFactor": 771,
    "_spriteFrame": {
      "__uuid__": "d618dbe2-792f-4af2-9aa8-fa8cae64d91c"
    },
    "_type": 0,
    "_sizeMode": 1,
    "_fillType": 0,
    "_fillCenter": {
      "__type__": "cc.Vec2",
      "x": 0,
      "y": 0
    },
    "_fillStart": 0,
    "_fillRange": 0,
    "_isTrimmedMode": true,
    "_atlas": null,
    "_id": ""
  },
  {
    "__type__": "cc.Animation",
    "_name": "",
    "_objFlags": 0,
    "node": {
      "__id__": 12
    },
    "_enabled": true,
    "_defaultClip": {
      "__uuid__": "410bf197-9513-4e8c-b960-cba60dee3bb0"
    },
    "_clips": [
      {
        "__uuid__": "410bf197-9513-4e8c-b960-cba60dee3bb0"
      }
    ],
    "playOnLoad": true,
    "_id": ""
  },
  {
    "__type__": "cc.PrefabInfo",
    "root": {
      "__id__": 1
    },
    "asset": {
      "__uuid__": "454a8c99-59af-4611-8e29-a59f3bcd4545"
    },
    "fileId": "b4jjn2szlHG6IcSMQsEOqv",
    "sync": false
  },
  {
    "__type__": "cc.Node",
    "_name": "fish_suoding_me",
    "_objFlags": 0,
    "_parent": {
      "__id__": 1
    },
    "_children": [],
    "_active": false,
    "_level": 2,
    "_components": [
      {
        "__id__": 17
      },
      {
        "__id__": 18
      }
    ],
    "_prefab": {
      "__id__": 19
    },
    "_opacity": 255,
    "_color": {
      "__type__": "cc.Color",
      "r": 255,
      "g": 255,
      "b": 255,
      "a": 255
    },
    "_contentSize": {
      "__type__": "cc.Size",
      "width": 169,
      "height": 169
    },
    "_anchorPoint": {
      "__type__": "cc.Vec2",
      "x": 0.5,
      "y": 0.5
    },
    "_eulerAngles": {
      "__type__": "cc.Vec3",
      "x": 0,
      "y": 0,
      "z": 0
    },
    "_skewX": 0,
    "_skewY": 0,
    "_is3DNode": false,
    "groupIndex": 0,
    "_id": "",
    "_trs": {
      "__type__": "TypedArray",
      "ctor": "Float64Array",
      "array": [
        17.123,
        -12.329,
        0,
        0,
        0,
        0,
        1,
        1,
        1,
        1
      ]
    }
  },
  {
    "__type__": "cc.Sprite",
    "_name": "",
    "_objFlags": 0,
    "node": {
      "__id__": 16
    },
    "_enabled": true,
    "_materials": [
      {
        "__uuid__": "eca5d2f2-8ef6-41c2-bbe6-f9c79d09c432"
      }
    ],
    "_srcBlendFactor": 770,
    "_dstBlendFactor": 771,
    "_spriteFrame": {
      "__uuid__": "d618dbe2-792f-4af2-9aa8-fa8cae64d91c"
    },
    "_type": 0,
    "_sizeMode": 1,
    "_fillType": 0,
    "_fillCenter": {
      "__type__": "cc.Vec2",
      "x": 0,
      "y": 0
    },
    "_fillStart": 0,
    "_fillRange": 0,
    "_isTrimmedMode": true,
    "_atlas": null,
    "_id": ""
  },
  {
    "__type__": "cc.Animation",
    "_name": "",
    "_objFlags": 0,
    "node": {
      "__id__": 16
    },
    "_enabled": true,
    "_defaultClip": {
      "__uuid__": "410bf197-9513-4e8c-b960-cba60dee3bb0"
    },
    "_clips": [
      {
        "__uuid__": "410bf197-9513-4e8c-b960-cba60dee3bb0"
      }
    ],
    "playOnLoad": true,
    "_id": ""
  },
  {
    "__type__": "cc.PrefabInfo",
    "root": {
      "__id__": 1
    },
    "asset": {
      "__uuid__": "454a8c99-59af-4611-8e29-a59f3bcd4545"
    },
    "fileId": "4dmkGsNclGWLV6v6oO2s+g",
    "sync": false
  },
  {
    "__type__": "655c6/MZdJNZo/YxgAvEk8A",
    "_name": "",
    "_objFlags": 0,
    "node": {
      "__id__": 1
    },
    "_enabled": true,
    "fish": {
      "__id__": 6
    },
    "shadow": {
      "__id__": 3
    },
    "collider": {
      "__id__": 21
    },
    "anim": {
      "__id__": 22
    },
    "head": {
      "__id__": 8
    },
    "end": {
      "__id__": 10
    },
    "suoMe": {
      "__id__": 16
    },
    "suoOther": {
      "__id__": 12
    },
    "speed": 1,
    "_id": ""
  },
  {
    "__type__": "cc.PolygonCollider",
    "_name": "",
    "_objFlags": 0,
    "node": {
      "__id__": 1
    },
    "_enabled": true,
    "tag": 0,
    "_offset": {
      "__type__": "cc.Vec2",
      "x": 0,
      "y": 0
    },
    "points": [
      {
        "__type__": "cc.Vec2",
        "x": 14.9,
        "y": -52.1
      },
      {
        "__type__": "cc.Vec2",
        "x": 33.8,
        "y": -47
      },
      {
        "__type__": "cc.Vec2",
        "x": 62.6,
        "y": -12.2
      },
      {
        "__type__": "cc.Vec2",
        "x": 82.7,
        "y": -26.2
      },
      {
        "__type__": "cc.Vec2",
        "x": 83.1,
        "y": 1.9
      },
      {
        "__type__": "cc.Vec2",
        "x": 60.9,
        "y": -2.2
      },
      {
        "__type__": "cc.Vec2",
        "x": 22,
        "y": 30.8
      },
      {
        "__type__": "cc.Vec2",
        "x": 7.2,
        "y": 31.2
      },
      {
        "__type__": "cc.Vec2",
        "x": -5.6,
        "y": 17.4
      },
      {
        "__type__": "cc.Vec2",
        "x": -19.1,
        "y": 4.6
      },
      {
        "__type__": "cc.Vec2",
        "x": -21.8,
        "y": -23.7
      },
      {
        "__type__": "cc.Vec2",
        "x": -9.4,
        "y": -44.3
      }
    ],
    "_id": ""
  },
  {
    "__type__": "cc.Animation",
    "_name": "",
    "_objFlags": 0,
    "node": {
      "__id__": 1
    },
    "_enabled": true,
    "_defaultClip": null,
    "_clips": [
      {
        "__uuid__": "a2ba3d78-3e66-4ada-a475-a9ce0cd7a5a1"
      },
      {
        "__uuid__": "5a93f269-d2da-4b26-8f22-de9a508361ed"
      },
      {
        "__uuid__": "5b397241-d2f7-4cd5-bd8f-3a55b64ba71d"
      },
      {
        "__uuid__": "5eda9a91-cbaa-4758-8d40-ec7dcce0b816"
      },
      {
        "__uuid__": "6c906dff-3630-4c88-878a-db93babf8c5f"
      },
      {
        "__uuid__": "482cf4dd-5fb6-42f7-bcea-637abfb25402"
      },
      {
        "__uuid__": "2dcdffdb-d3d3-4ae8-b44f-885856970651"
      },
      {
        "__uuid__": "d218a63e-5a4f-426b-81f2-f8cefe8ef416"
      },
      {
        "__uuid__": "fc6a80d8-f119-4fb5-9a85-61d2d246e298"
      },
      {
        "__uuid__": "c6a0fc43-3be0-42c3-9176-b44b8b98247b"
      },
      {
        "__uuid__": "74c81567-85cd-4aa7-ae01-c0d290450085"
      },
      {
        "__uuid__": "b03eeb54-29b7-4565-89dc-3dea01b5bf1d"
      },
      {
        "__uuid__": "11907465-980b-4ee4-a1d9-aaceb3b308d0"
      },
      {
        "__uuid__": "556777b0-01fa-4c41-a747-b9e53d65332e"
      }
    ],
    "playOnLoad": false,
    "_id": ""
  },
  {
    "__type__": "cc.PrefabInfo",
    "root": {
      "__id__": 1
    },
    "asset": {
      "__uuid__": "454a8c99-59af-4611-8e29-a59f3bcd4545"
    },
    "fileId": "71gVxo/RlArLoTxC11MxxV",
    "sync": false
  }
]